{
  "page": 2,
  "per_page": 10,
  "total": 36,
  "total_pages": 3,
  "data": [
    {
      "title": "Kill Bill: The Whole Bloody Affair",
      "year": "2011",
      "rated": "Not Rated",
      "released": "27 Mar 2011",
      "runtime": "247 min",
      "genre": "Action, Crime, Thriller",
      "director": "Quentin Tarantino",
      "writer": "Quentin Tarantino, Uma Thurman",
      "actors": "Uma Thurman, Vivica A. Fox, Michael Madsen"
    },
    {
      "title": "Irrational Man",
      "year": "2015",
      "rated": "R",
      "released": "07 Aug 2015",
      "runtime": "95 min",
      "genre": "Comedy, Crime, Drama",
      "director": "Woody Allen",
      "writer": "Woody Allen",
      "actors": "Joaquin Phoenix, Emma Stone, Parker Posey"
    },
    {
      "title": "Underdogs",
      "year": "2013",
      "rated": "PG",
      "released": "18 Jul 2013",
      "runtime": "85 min",
      "genre": "Animation, Adventure, Family",
      "director": "Juan José Campanella",
      "writer": "Eduardo Sacheri, Gastón Gorali, Juan José Campanella",
      "actors": "Gabriel Almirón, Federico Cecere, Ezequiel Cipols"
    },
    {
      "title": "The Wolf of Wall Street",
      "year": "2013",
      "rated": "R",
      "released": "25 Dec 2013",
      "runtime": "180 min",
      "genre": "Biography, Comedy, Crime",
      "director": "Martin Scorsese",
      "writer": "Terence Winter, Jordan Belfort",
      "actors": "Leonardo DiCaprio, Jonah Hill, Margot Robbie"
    },
    {
      "title": "Shutter Island",
      "year": "2010",
      "rated": "R",
      "released": "19 Feb 2010",
      "runtime": "138 min",
      "genre": "Mystery, Thriller",
      "director": "Martin Scorsese",
      "writer": "Laeta Kalogridis, Dennis Lehane",
      "actors": "Leonardo DiCaprio, Emily Mortimer, Mark Ruffalo"
    },
    {
      "title": "Sully",
      "year": "2016",
      "rated": "PG-13",
      "released": "09 Sep 2016",
      "runtime": "96 min",
      "genre": "Biography, Drama",
      "director": "Clint Eastwood",
      "writer": "Todd Komarnicki, Chesley Sullenberger, Jeffrey Zaslow",
      "actors": "Tom Hanks, Aaron Eckhart, Laura Linney"
    },
    {
      "title": "To Rome with Love",
      "year": "2012",
      "rated": "R",
      "released": "06 Jul 2012",
      "runtime": "112 min",
      "genre": "Comedy, Music, Romance",
      "director": "Woody Allen",
      "writer": "Woody Allen",
      "actors": "Woody Allen, Penélope Cruz, Jesse Eisenberg"
    },
    {
      "title": "Café Society",
      "year": "2016",
      "rated": "PG-13",
      "released": "05 Aug 2016",
      "runtime": "96 min",
      "genre": "Comedy, Drama, Romance",
      "director": "Woody Allen",
      "writer": "Woody Allen",
      "actors": "Jesse Eisenberg, Kristen Stewart, Steve Carell"
    },
    {
      "title": "Split",
      "year": "2016",
      "rated": "PG-13",
      "released": "20 Jan 2017",
      "runtime": "117 min",
      "genre": "Horror, Thriller",
      "director": "M. Night Shyamalan",
      "writer": "M. Night Shyamalan",
      "actors": "James McAvoy, Anya Taylor-Joy, Haley Lu Richardson"
    },
    {
      "title": "You Will Meet a Tall Dark Stranger",
      "year": "2010",
      "rated": "R",
      "released": "22 Oct 2010",
      "runtime": "98 min",
      "genre": "Comedy, Drama, Romance",
      "director": "Woody Allen",
      "writer": "Woody Allen",
      "actors": "Anthony Hopkins, Naomi Watts, Josh Brolin"
    }
  ]

}