{
  "page": 1,
  "per_page": 10,
  "total": 36,
  "total_pages": 3,
  "data": [
    {
      "title": "Midnight in Paris",
      "year": "2011",
      "rated": "PG-13",
      "released": "10 Jun 2011",
      "runtime": "94 min",
      "genre": "Comedy, Fantasy, Romance",
      "director": "Woody Allen",
      "writer": "Woody Allen",
      "actors": "Owen Wilson, Rachel McAdams, Kathy Bates"
    },
    {
      "title": "The Hateful Eight",
      "year": "2015",
      "rated": "R",
      "released": "30 Dec 2015",
      "runtime": "168 min",
      "genre": "Crime, Drama, Mystery",
      "director": "Quentin Tarantino",
      "writer": "Quentin Tarantino",
      "actors": "Samuel L. Jackson, Kurt Russell, Jennifer Jason Leigh"
    },
    {
      "title": "Silence",
      "year": "2016",
      "rated": "R",
      "released": "13 Jan 2017",
      "runtime": "161 min",
      "genre": "Drama, History",
      "director": "Martin Scorsese",
      "writer": "Jay Cocks, Martin Scorsese, Shûsaku Endô",
      "actors": "Andrew Garfield, Adam Driver, Liam Neeson"
    },
    {
      "title": "The Skin I Live In",
      "year": "2011",
      "rated": "R",
      "released": "02 Sep 2011",
      "runtime": "120 min",
      "genre": "Drama, Horror, Thriller",
      "director": "Pedro Almodóvar",
      "writer": "Pedro Almodóvar, Agustín Almodóvar, Thierry Jonquet",
      "actors": "Antonio Banderas, Elena Anaya, Jan Cornet"
    },
    {
      "title": "Pain and Glory",
      "year": "2019",
      "rated": "R",
      "released": "04 Oct 2019",
      "runtime": "113 min",
      "genre": "Drama",
      "director": "Pedro Almodóvar",
      "writer": "Pedro Almodóvar",
      "actors": "Antonio Banderas, Asier Etxeandia, Leonardo Sbaraglia"
    },
    {
      "title": "The Last Airbender",
      "year": "2010",
      "rated": "PG",
      "released": "01 Jul 2010",
      "runtime": "103 min",
      "genre": "Action, Adventure, Family",
      "director": "M. Night Shyamalan",
      "writer": "M. Night Shyamalan",
      "actors": "Noah Ringer, Nicola Peltz, Jackson Rathbone"
    },
    {
      "title": "Blue Jasmine",
      "year": "2013",
      "rated": "PG-13",
      "released": "23 Aug 2013",
      "runtime": "98 min",
      "genre": "Comedy, Drama",
      "director": "Woody Allen",
      "writer": "Woody Allen",
      "actors": "Cate Blanchett, Alec Baldwin, Peter Sarsgaard"
    },
    {
      "title": "J. Edgar",
      "year": "2011",
      "rated": "R",
      "released": "11 Nov 2011",
      "runtime": "137 min",
      "genre": "Biography, Drama, Romance",
      "director": "Clint Eastwood",
      "writer": "Dustin Lance Black",
      "actors": "Leonardo DiCaprio, Armie Hammer, Naomi Watts"
    },
    {
      "title": "Midnight in Paris",
      "year": "2011",
      "rated": "PG-13",
      "released": "10 Jun 2011",
      "runtime": "94 min",
      "genre": "Comedy, Fantasy, Romance",
      "director": "Woody Allen",
      "writer": "Woody Allen",
      "actors": "Owen Wilson, Rachel McAdams, Kathy Bates"
    },
    {
      "title": "After Earth",
      "year": "2013",
      "rated": "PG-13",
      "released": "31 May 2013",
      "runtime": "100 min",
      "genre": "Action, Adventure, Sci-Fi",
      "director": "M. Night Shyamalan",
      "writer": "Gary Whitta, M. Night Shyamalan, Will Smith",
      "actors": "Jaden Smith, David Denman, Will Smith"
    },
    {
      "title": "Hugo",
      "year": "2011",
      "rated": "PG",
      "released": "23 Nov 2011",
      "runtime": "126 min",
      "genre": "Adventure, Drama, Family",
      "director": "Martin Scorsese",
      "writer": "John Logan, Brian Selznick",
      "actors": "Asa Butterfield, Chloë Grace Moretz, Christopher Lee"
    }
  ]
}